time,hour,temp,height
24,14:09,22.93,0.920
28,14:13,20.89,0.853
30,14:15,19.90,0.825
33,14:18,18.46,0.774
37,14:22,17.32,0.742
42,14:27,16.17,0.695
46,14:31,15.24,0.669
51,14:36,14.18,0.634
54,14:39,12.90,0.585
59,14:44,12.00,0.553
63,14:48,10.91,0.511
70,14:55,9.92,0.469
82,15:07,8.02,0.399
86,15:11,6.76,0.353
91,15:16,5.48,0.302
94,15:19,4.35,0.257
99,15:24,3.71,0.233
103,15:28,3.13,0.214
117,15:42,2.00,0.164
125,15:50,0.70,0.124