Periodi Pegoretti 20 (s), Periodi Facchinelli 20 (s), Periodi Yip 20 (s)
1.38,1.38,1.39
1.41,1.36,1.28
1.45,1.39,1.60
1.38,1.46,1.45
1.46,1.20,1.24
1.38,1.41,1.31
1.38,1.42,1.35
1.38,1.36,1.37
1.41,1.42,1.38
1.48,1.45,1.42
1.40,1.41,1.60
1.29,1.45,1.34
1.38,1.44,1.30
1.38,1.42,1.50
1.33,1.44,1.55
1.42,1.31,1.26
1.39,1.41,1.38
1.37,1.40,1.46
1.31,1.49,1.44
1.35,1.44,1.44
