\relax 
\providecommand \oddpage@label [2]{}
\babel@aux{italian}{}
\babel@aux{italian}{}
\@writefile{toc}{\contentsline {section}{\numberline {1}Introduzione}{2}}
\@writefile{toc}{\contentsline {section}{\numberline {2}Misura delle lunghezze}{2}}
\@writefile{toc}{\contentsline {subsection}{\numberline {2.1}Materiali e metodi}{2}}
\@writefile{toc}{\contentsline {subsection}{\numberline {2.2}Risultati e analisi dati}{2}}
\@writefile{toc}{\contentsline {subsection}{\numberline {2.3}Discussione}{3}}
\@writefile{toc}{\contentsline {section}{\numberline {3}Misura del periodo del pendolo}{4}}
\@writefile{toc}{\contentsline {subsection}{\numberline {3.1}Materiali e metodi}{4}}
\newlabel{eq:periodo}{{8}{4}}
\@writefile{toc}{\contentsline {subsection}{\numberline {3.2}Risultati e analisi dati}{5}}
\newlabel{eq:vattt}{{9}{5}}
\@writefile{toc}{\contentsline {subsection}{\numberline {3.3}Discussione}{6}}
\@writefile{toc}{\contentsline {section}{\numberline {4}Conclusioni}{7}}
\providecommand*\caption@xref[2]{\@setref\relax\@undefined{#1}}
\newlabel{hist5}{{1a}{8}}
\newlabel{sub@hist5}{{(a)}{a}}
\newlabel{hist7}{{1c}{8}}
\newlabel{sub@hist7}{{(c)}{c}}
\newlabel{hist8}{{1d}{8}}
\newlabel{sub@hist8}{{(d)}{d}}
\@writefile{lof}{\contentsline {figure}{\numberline {1}{\ignorespaces Misure di lunghezza con calibro e micrometro, normalizzati per altezza e per superficie\relax }}{8}}
\newlabel{fig:hists1}{{1}{8}}
\newlabel{hist2}{{2a}{9}}
\newlabel{sub@hist2}{{(a)}{a}}
\@writefile{lof}{\contentsline {figure}{\numberline {2}{\ignorespaces Misure di lunghezza con calibro e micrometro, normalizzati per altezza e per superficie\relax }}{9}}
\newlabel{fig:hists2}{{2}{9}}
\@writefile{lof}{\contentsline {figure}{\numberline {3}{\ignorespaces Istogrammi cumulativi con indicazione dei quantili $10\%$ e $90\%$\relax }}{10}}
\newlabel{fig:hists3}{{3}{10}}
\newlabel{hist11}{{4a}{11}}
\newlabel{sub@hist11}{{(a)}{a}}
\newlabel{hist12}{{4b}{11}}
\newlabel{sub@hist12}{{(b)}{b}}
\@writefile{lof}{\contentsline {figure}{\numberline {4}{\ignorespaces Istogrammi relativi alle misure del periodo del pendolo\relax }}{11}}
\newlabel{fig:hists3}{{4}{11}}
\@writefile{lot}{\contentsline {table}{\numberline {1}{\ignorespaces Dati sperimentali delle misure delle lunghezze\relax }}{12}}
\@writefile{lot}{\contentsline {table}{\numberline {2}{\ignorespaces Parametri statistici delle misure delle lunghezze\relax }}{12}}
\newlabel{stpar1}{{2}{12}}
\newlabel{tab:periodi}{{\caption@xref {tab:periodi}{ on input line 59}}{13}}
\@writefile{lot}{\contentsline {table}{\numberline {3}{\ignorespaces Dati sperimentali delle misure del periodo del pendolo\relax }}{13}}
\@writefile{lot}{\contentsline {table}{\numberline {4}{\ignorespaces Dati sperimentali di 100 misure del periodo del pendolo espresse in \si {\qopname  \relax o{sec}} ($\delta _{\text  {ris}}=\SI {0.005}{\qopname  \relax o{sec}}$)\relax }}{13}}
\@writefile{lot}{\contentsline {table}{\numberline {5}{\ignorespaces Parametri statistici delle misure del periodo del pendolo\relax }}{13}}
\newlabel{tab:datipendolo}{{5}{13}}
