\relax 
\babel@aux{italian}{}
\babel@aux{italian}{}
\@writefile{toc}{\contentsline {section}{\numberline {1}Misura lunghezza}{1}}
\@writefile{toc}{\contentsline {subsection}{\numberline {1.1}Introduzione}{1}}
\@writefile{toc}{\contentsline {subsection}{\numberline {1.2}Materiali e metodi}{1}}
\@writefile{toc}{\contentsline {subsection}{\numberline {1.3}Risultati}{1}}
\@writefile{toc}{\contentsline {subsection}{\numberline {1.4}Discussione e conclusioni}{1}}
\@writefile{toc}{\contentsline {section}{\numberline {2}Periodo pendolo}{1}}
\@writefile{toc}{\contentsline {subsection}{\numberline {2.1}Introduzione}{1}}
\@writefile{toc}{\contentsline {subsection}{\numberline {2.2}Materiali e metodi}{1}}
\@writefile{toc}{\contentsline {subsection}{\numberline {2.3}Risultati}{1}}
\@writefile{toc}{\contentsline {subsection}{\numberline {2.4}Discussione e conclusioni}{1}}
