t0,t0_1,t0_2,t0_3,t1,t2,t3,t4,t5,t6,t7,t8,t9,t10
3.22,5.79,5.95,5.84,4.61,5.25,6.05,6.49,7.17,7.66,8.10,8.59,8.93,9.41
3.30,5.82,5.94,5.81,4.73,5.22,6.01,6.52,7.14,7.68,8.03,8.56,8.91,9.37
3.26,5.87,5.95,5.84,4.68,5.24,5.99,6.56,7.13,7.66,8.13,8.59,8.99,9.44
3.27,5.88,5.88,5.76,4.67,5.30,5.97,6.50,7.13,7.70,8.06,8.56,8.95,9.51
3.29,5.89,5.94,5.86,4.68,5.30,5.98,6.53,7.09,7.71,8.08,8.52,8.92,9.41
3.10,5.84,5.84,5.70,4.69,5.20,6.07,6.46,7.14,7.68,8.08,8.60,8.91,9.40
3.27,5.87,5.85,5.84,4.75,5.28,5.99,6.58,7.13,7.67,8.09,8.59,8.93,9.42
3.29,5.84,5.90,5.79,4.67,5.27,6.02,6.57,7.03,7.74,8.02,8.62,8.97,9.41
3.28,5.84,5.95,5.90,4.70,5.34,5.99,6.56,7.08,7.70,8.06,8.60,8.94,9.45
3.23,5.91,5.93,5.78,4.74,5.33,6.00,6.54,7.13,7.60,8.09,8.63,8.95,9.40