za0, za1, za2, za3, za4, za5, za6, za7, za8, za9, za10
60.70, 58.80, 57.30, 55.25, 53.70, 51.65, 49.60, 48.05, 45.90, 44.40, 42.30
60.75, 58.85, 57.30, 55.20, 53.70, 51.60, 49.55, 48.00, 45.90, 44.35, 42.25
60.70, 58.80, 57.25, 55.25, 53.70, 51.65, 49.55, 48.05, 45.90, 44.40, 42.25
60.70, 58.85, 57.30, 55.25, 53.70, 51.65, 49.60, 48.00, 45.90, 44.40, 42.30
60.70, 58.85, 57.30, 55.25, 53.70, 51.65, 49.55, 48.00, 45.90, 44.35, 42.30
