% This file was created by matplotlib2tikz v0.6.16.
\begin{tikzpicture}

\definecolor{color0}{rgb}{0.12156862745098,0.466666666666667,0.705882352941177}

\begin{axis}[
title={Relazione tra massa e periodo},
xlabel={masse [kg]},
ylabel={periodi [$s$]},
xmin=0.0158282457351946, xmax=0.214771754264805,
ymin=0.292294850845534, ymax=0.974384065482961,
width=\figurewidth,
height=\figureheight,
tick align=outside,
tick pos=left,
xmajorgrids,
x grid style={white!69.01960784313725!black},
ymajorgrids,
y grid style={white!69.01960784313725!black}
]
\path [draw=color0, semithick] (axis cs:0.0248711324865405,0.3251)
--(axis cs:0.0249288675134595,0.3251);

\path [draw=color0, semithick] (axis cs:0.0452711324865405,0.4692)
--(axis cs:0.0453288675134595,0.4692);

\path [draw=color0, semithick] (axis cs:0.0601711324865405,0.5273)
--(axis cs:0.0602288675134595,0.5273);

\path [draw=color0, semithick] (axis cs:0.0798711324865405,0.6007)
--(axis cs:0.0799288675134595,0.6007);

\path [draw=color0, semithick] (axis cs:0.0952711324865405,0.6531)
--(axis cs:0.0953288675134595,0.6531);

\path [draw=color0, semithick] (axis cs:0.115071132486541,0.7117)
--(axis cs:0.115128867513459,0.7117);

\path [draw=color0, semithick] (axis cs:0.135071132486541,0.768)
--(axis cs:0.135128867513459,0.768);

\path [draw=color0, semithick] (axis cs:0.150371132486541,0.8074)
--(axis cs:0.150428867513459,0.8074);

\path [draw=color0, semithick] (axis cs:0.170471132486541,0.8586)
--(axis cs:0.170528867513459,0.8586);

\path [draw=color0, semithick] (axis cs:0.185471132486541,0.894)
--(axis cs:0.185528867513459,0.894);

\path [draw=color0, semithick] (axis cs:0.205671132486541,0.9422)
--(axis cs:0.205728867513459,0.9422);

\path [draw=color0, semithick] (axis cs:0.0249,0.323298906056326)
--(axis cs:0.0249,0.326901093943674);

\path [draw=color0, semithick] (axis cs:0.0453,0.467929312601524)
--(axis cs:0.0453,0.470470687398476);

\path [draw=color0, semithick] (axis cs:0.0602,0.525884537053281)
--(axis cs:0.0602,0.528715462946719);

\path [draw=color0, semithick] (axis cs:0.0799,0.599703288234526)
--(axis cs:0.0799,0.601696711765474);

\path [draw=color0, semithick] (axis cs:0.0953,0.651897519398926)
--(axis cs:0.0953,0.654302480601074);

\path [draw=color0, semithick] (axis cs:0.1151,0.710467649859542)
--(axis cs:0.1151,0.712932350140458);

\path [draw=color0, semithick] (axis cs:0.1351,0.766835499847119)
--(axis cs:0.1351,0.769164500152881);

\path [draw=color0, semithick] (axis cs:0.1504,0.806371860560493)
--(axis cs:0.1504,0.808428139439507);

\path [draw=color0, semithick] (axis cs:0.1705,0.857591701102516)
--(axis cs:0.1705,0.859608298897483);

\path [draw=color0, semithick] (axis cs:0.1855,0.893169702499466)
--(axis cs:0.1855,0.894830297500535);

\path [draw=color0, semithick] (axis cs:0.2057,0.941019989727831)
--(axis cs:0.2057,0.943380010272169);

\addplot [semithick, color0, mark=*, mark size=1, mark options={solid}, only marks, forget plot]
table {%
0.0249 0.3251
0.0453 0.4692
0.0602 0.5273
0.0799 0.6007
0.0953 0.6531
0.1151 0.7117
0.1351 0.768
0.1504 0.8074
0.1705 0.8586
0.1855 0.894
0.2057 0.9422
};
\end{axis}

\end{tikzpicture}