% This file was created by matplotlib2tikz v0.6.16.
\begin{tikzpicture}

\definecolor{color0}{rgb}{0.12156862745098,0.466666666666667,0.705882352941177}

\begin{axis}[
title={Grafico dei residui},
xlabel={masse [kg]},
ylabel={periodo quadro [$s^2$]},
xmin=0.01586, xmax=0.21474,
ymin=-0.0124738318459404, ymax=0.0182720169925143,
width=\figurewidth,
height=\figureheight,
tick align=outside,
tick pos=left,
x grid style={white!69.01960784313725!black},
y grid style={white!69.01960784313725!black}
]
\addplot [semithick, color0, mark=*, mark size=1, mark options={solid}, only marks, forget plot]
table {%
0.0249 0.0168744784089482
0.0453 -0.0110762932623742
0.0602 -0.00578828203211457
0.0799 -0.00504403060687181
0.0953 -0.00543819873130147
0.1151 -0.00145196917699675
0.1351 5.25466354324156e-05
0.1504 0.00286268038194071
0.1705 0.00279916432343219
0.1855 0.00436584368275339
0.2057 0.00152074575330696
};
\end{axis}

\end{tikzpicture}