\relax 
\providecommand \oddpage@label [2]{}
\babel@aux{italian}{}
\babel@aux{italian}{}
\@writefile{toc}{\contentsline {section}{\numberline {1}Introduzione}{2}}
\@writefile{toc}{\contentsline {section}{\numberline {2}Materiali e strumenti di misura}{2}}
\@writefile{toc}{\contentsline {section}{\numberline {3}Misura del $k$ statico}{2}}
\@writefile{toc}{\contentsline {subsection}{\numberline {3.1}Procedimento}{2}}
\@writefile{lot}{\contentsline {table}{\numberline {1}{\ignorespaces Dati delle masse misurate, senza e con piattello. $\delta m_i=\SI {0.05}{\gram }$\relax }}{3}}
\@writefile{lot}{\contentsline {table}{\numberline {2}{\ignorespaces Dati delle lunghezze misurate da due operatori inizialmente. $\delta z_{b_i}=\SI {0.0025}{\meter }$\relax }}{3}}
\@writefile{toc}{\contentsline {subsection}{\numberline {3.2}Risultati e analisi dati}{3}}
\@writefile{lot}{\contentsline {table}{\numberline {3}{\ignorespaces Dati delle lunghezze misurate da due operatori pi\IeC {\`u} tardi. $\delta z_{a_i}=\SI {0.0025}{\meter }$\relax }}{4}}
\@writefile{lot}{\contentsline {table}{\numberline {4}{\ignorespaces Dati dei periodi misurati. $\delta \mathcal  {T}_i=\SI {0.005}{\qopname  \relax o{sec}}$\relax }}{4}}
\@writefile{lot}{\contentsline {table}{\numberline {5}{\ignorespaces Tabella con pesi e allungamenti\relax }}{5}}
\providecommand*\caption@xref[2]{\@setref\relax\@undefined{#1}}
\newlabel{tab:tabellabella}{{5}{5}}
\@writefile{lot}{\contentsline {table}{\numberline {6}{\ignorespaces Tabella degli errori relativi. Le righe rappresentano rispettivamente: l'errore relativo sui pesi, quello sugli allungamenti ed il loro rapporto.\relax }}{6}}
\newlabel{tab:tabrel1}{{6}{6}}
\@writefile{lot}{\contentsline {table}{\numberline {7}{\ignorespaces Confronto fra misure in momenti diversi.\relax }}{6}}
\newlabel{tab:ref1}{{7}{6}}
\@writefile{lot}{\contentsline {table}{\numberline {8}{\ignorespaces Tabella degli errori relativi. Le righe rappresentano rispettivamente: l'errore relativo sulle masse, quello sui periodi quadri ed il loro rapporto.\relax }}{6}}
\newlabel{tab:tabrel2}{{8}{6}}
\newlabel{eq:mpesata}{{6}{7}}
\newlabel{eq:parA}{{7}{7}}
\newlabel{eq:parB}{{8}{7}}
\newlabel{eq:errAB}{{9}{7}}
\newlabel{eq:Delta}{{10}{7}}
\newlabel{eq:weights}{{11}{7}}
\@writefile{lof}{\contentsline {figure}{\numberline {1}{\ignorespaces Grafico degli allungamenti in rapporto ai pesi.\relax }}{8}}
\newlabel{fig:fig1}{{1}{8}}
\@writefile{lof}{\contentsline {figure}{\numberline {2}{\ignorespaces Grafico dei residui.\relax }}{8}}
\newlabel{fig:fig2}{{2}{8}}
\newlabel{eq:ks1}{{12}{9}}
\@writefile{toc}{\contentsline {subsection}{\numberline {3.3}Discussione}{9}}
\@writefile{toc}{\contentsline {subsubsection}{\numberline {3.3.1}Scelta della media}{9}}
\@writefile{toc}{\contentsline {subsubsection}{\numberline {3.3.2}Carico e scarico molla}{9}}
\@writefile{toc}{\contentsline {section}{\numberline {4}Misura del $k$ dinamico}{9}}
\@writefile{toc}{\contentsline {subsection}{\numberline {4.1}Procedimento}{9}}
\@writefile{toc}{\contentsline {subsection}{\numberline {4.2}Risultati e analisi dati}{9}}
\@writefile{lof}{\contentsline {figure}{\numberline {3}{\ignorespaces Relazione tra massa e periodo.\relax }}{10}}
\newlabel{fig:fig5}{{3}{10}}
\@writefile{lof}{\contentsline {figure}{\numberline {4}{\ignorespaces Relazione tra massa e periodo quadro.\relax }}{11}}
\newlabel{fig:fig6}{{4}{11}}
\@writefile{lof}{\contentsline {figure}{\numberline {5}{\ignorespaces Relazione tra massa e periodo quadro senza i primi quattro dati.\relax }}{11}}
\newlabel{fig:fig10}{{5}{11}}
\@writefile{toc}{\contentsline {subsection}{\numberline {4.3}Discussione}{12}}
\@writefile{toc}{\contentsline {subsubsection}{\numberline {4.3.1}Calcolo di $C^2$ e massa efficace}{12}}
\newlabel{eq:meff}{{16}{12}}
\@writefile{toc}{\contentsline {section}{\numberline {5}Conclusioni}{12}}
