\relax 
\providecommand \oddpage@label [2]{}
\babel@aux{italian}{}
\babel@aux{italian}{}
\@writefile{toc}{\contentsline {section}{\numberline {1}Introduzione}{2}}
\@writefile{toc}{\contentsline {section}{\numberline {2}Materiali e metodi}{2}}
\@writefile{toc}{\contentsline {section}{\numberline {3}Dipendenza del periodo dalla massa}{2}}
\@writefile{toc}{\contentsline {subsection}{\numberline {3.1}Risultati e analisi dati}{2}}
\@writefile{toc}{\contentsline {subsection}{\numberline {3.2}Discussione}{2}}
\@writefile{toc}{\contentsline {section}{\numberline {4}Dipendenza del periodo dalla lunghezza}{2}}
\@writefile{toc}{\contentsline {subsection}{\numberline {4.1}Risultati e analisi dati}{2}}
\@writefile{toc}{\contentsline {subsection}{\numberline {4.2}Discussione}{2}}
\@writefile{toc}{\contentsline {section}{\numberline {5}Misurazione dell'accelerazione di gravit\IeC {\`a}}{2}}
\@writefile{toc}{\contentsline {subsection}{\numberline {5.1}Risultati e analisi dati}{2}}
\@writefile{toc}{\contentsline {subsection}{\numberline {5.2}Discussione}{2}}
