Numero_campione,Misure_calibro,Misure_micrometro
1,13.75,13.75
2,13.80,13.87
3,13.70,13.75
4,13.70,13.74
5,13.70,13.74
6,13.90,13.94
7,13.75,13.77
8,13.75,13.74
9,13.70,13.72
10,13.75,13.80
11,13.70,13.73
12,13.70,13.76
13,13.65,13.66
14,13.75,13.78
15,13.65,13.71
16,13.55,13.57
17,13.60,13.69
18,13.65,13.67
19,13.80,13.87
20,13.60,13.64
21,13.80,13.82
22,13.80,13.80
23,13.75,13.75
24,13.60,13.64
25,13.60,13.60
26,14.00,13.95
27,13.75,13.73
28,13.60,13.58
29,13.75,13.70
30,13.75,13.72
31,13.70,13.68
32,13.85,13.83
33,13.80,13.78
34,13.60,13.54
35,13.70,13.66
36,13.75,13.72
37,13.80,13.74
38,13.70,13.69
39,13.70,13.66
40,13.65,13.61
41,13.60,13.58
42,13.65,13.60
43,13.70,13.68
44,13.80,13.76
45,13.90,13.88
46,13.75,13.74
47,13.65,13.62
48,13.80,13.73
49,13.90,13.90
50,13.85,13.84
51,13.70,13.71
52,13.75,13.74
53,13.70,13.71
54,13.70,13.71
55,13.70,13.70
56,13.80,13.80
57,13.75,13.71
58,13.85,13.82
59,13.80,13.84
60,13.70,13.70
61,13.70,13.71
62,13.90,13.90
63,13.80,13.76
64,13.75,13.76
65,13.75,13.71
66,13.65,13.65
67,13.80,13.76
68,13.80,13.78
69,13.75,13.71
70,13.80,13.76
71,13.70,13.65
72,13.80,13.81
73,13.80,13.78
74,13.70,13.73
75,13.85,13.84
76,13.75,13.72
77,13.75,13.73
78,13.80,13.76
79,13.80,13.74
80,13.80,13.77
81,13.95,13.94
82,13.75,13.70
83,13.80,13.78
84,13.80,13.79
85,13.75,13.68
86,13.85,13.81
87,13.95,13.88
88,13.85,13.82
89,13.90,13.89
90,13.85,13.83
91,13.75,13.75
92,13.45,13.45
93,13.65,13.64
94,13.75,13.78
95,13.95,13.88
96,13.75,13.76
97,13.80,13.77
98,13.85,13.77
99,13.40,13.37
100,13.80,13.75
101,13.7,13.7
102,13.55,13.62
103,13.75,13.7
104,13.7,13.68
105,13.75,13.68
106,13.8,13.74
107,13.6,13.66
108,13.7,13.71
109,13.95,13.85
110,13.85,13.83
111,13.75,13.68
112,13.7,13.7
113,13.9,13.79
114,13.65,13.61
115,13.85,13.89
116,13.8,13.77
117,13.7,13.67
118,13.7,13.7
119,13.6,13.62
120,13.7,13.7
121,13.65,13.59
122,13.8,13.77
123,13.8,13.75
124,13.95,13.92
125,13.45,13.43
126,13.80,13.70
127,13.70,13.71
128,13.75,13.73
129,13.70,13.71
130,13.80,13.78
131,13.65,13.64
132,13.85,13.85
133,13.65,13.60
134,13.80,13.76
135,13.95,13.89
136,13.70,13.65
137,13.70,13.67
138,13.95,13.93
139,13.65,13.61
140,13.65,13.62
141,14.00,13.95
142,13.85,13.83
143,13.70,13.71
144,13.95,13.95
145,13.70,13.72
146,13.80,13.79
147,13.70,13.69
148,13.60,13.62
149,13.65,13.63
150,13.65,13.68
151,13.65,13.68
152,13.65,13.7
153,13.7,13.75
154,13.65,13.72
155,13.65,13.71
156,13.85,13.9
157,13.75,13.83
158,13.8,13.87
159,13.9,13.93
160,13.8,13.85
161,13.85,13.93
162,13.9,13.94
163,13.85,13.93
164,13.9,13.94
165,13.75,13.78
166,13.8,13.85
167,13.8,13.86
168,13.8,13.84
169,13.9,13.95
170,13.85,13.92
171,13.75,13.83
172,13.85,13.84
173,13.7,13.76
174,13.75,13.79
175,13.8,13.84
176,13.6,13.58
177,13.7,13.72
178,13.7,13.7
179,13.7,13.65
180,13.7,13.67
181,13.7,13.71
182,13.75,13.72
183,13.9,13.85
184,13.8,13.79
185,14,13.95
186,13.8,13.78
187,13.8,13.79
188,13.85,13.8
189,13.7,13.73
190,13.8,13.82
191,13.9,13.93
192,13.9,13.86
193,13.8,13.8
194,13.65,13.62
195,13.7,13.77
196,13.4,13.72
197,13.4,13.84
198,14,13.94
199,13.7,13.7
200,13.85,13.84
201,13.60,13.67
202,13.70,13.73
203,13.50,13.48
204,14.00,13.91
205,13.70,13.73
206,13.65,13.62
207,13.85,13.86
208,13.90,13.92
209,13.65,13.68
210,13.65,13.68
211,13.70,13.69
212,13.80,13.82
213,13.50,13.47
214,13.70,13.70
215,13.55,13.53
216,13.80,13.82
217,13.70,13.69
218,13.60,13.55
219,13.80,13.77
220,13.70,13.73
221,13.45,13.50
222,13.70,13.68
223,13.75,13.75
224,13.70,13.73
225,13.70,13.69
226,13.8,13.75
227,13.6,13.64
228,13.65,13.72
229,13.75,13.75
230,13.7,13.69
231,13.65,13.68
232,13.65,13.73
233,13.8,13.81
234,13.75,13.74
235,14,13.91
236,13.8,13.71
237,13.75,13.73
238,13.8,13.85
239,13.85,13.87
240,13.85,13.85
241,13.75,13.74
242,13.7,13.73
243,13.7,13.75
244,13.75,13.78
245,13.75,13.74
246,13.9,13.92
247,13.95,13.94
248,13.9,13.88
249,13.85,13.84
250,13.7,13.7
251,13.9,13.87
252,13.75,13.72
253,13.95,13.94
254,13.95,13.94
255,13.75,13.77
256,13.8,13.75
257,13.9,13.91
258,13.7,13.73
259,13.75,13.76
260,13.9,13.92
261,13.85,13.86
262,13.75,13.77
263,13.9,13.94
264,13.9,13.92
265,13.9,13.91
266,13.9,13.92
267,13.85,13.88
268,13.9,13.87
269,13.9,13.88
270,13.9,13.89
271,13.9,13.88
272,13.8,13.78
273,13.85,13.84
274,13.85,13.86
275,13.9,13.9
276,13.45,13.62
277,13.7,13.72
278,13.65,13.7
279,13.85,13.88
280,13.7,13.76
281,13.85,13.82
282,13.8,13.76
283,13.8,13.79
284,13.75,13.76
285,13.7,13.7
286,13.6,13.64
287,13.65,13.65
288,13.55,13.55
289,13.55,13.53
290,13.7,13.72
291,13.8,13.86
292,13.65,13.69
293,13.65,13.68
294,13.9,13.93
295,13.65,13.71
296,13.8,13.84
297,13.65,13.68
298,13.6,13.63
299,13.75,13.78
300,13.9,13.95
301,13.75,13.71
302,13.7,13.76
303,13.7,13.69
304,13.7,13.76
305,13.7,13.73
306,13.8,13.86
307,13.85,13.88
308,13.75,13.79
309,13.85,13.79
310,13.75,13.76
311,13.45,13.48
312,13.85,13.87
313,13.75,13.78
314,13.8,13.79
315,13.6,13.61
316,13.7,13.75
317,13.8,13.78
318,13.65,13.68
319,13.8,13.78
320,13.7,13.69
321,13.7,13.7
322,13.75,13.74
323,13.7,13.75
324,13.75,13.74
