Numero_campione,Misure_calibro,Misure_micrometro,sottile/grosso
1,13.80,13.70,1
2,13.70,13.71,1
3,13.75,13.73,1
4,13.70,13.71,1
5,13.80,13.78,1
6,13.65,13.64,0
7,13.85,13.85,0
8,13.65,13.60,0
9,13.80,13.76,0
10,13.95,13.89,0
11,13.70,13.65,0
12,13.70,13.67,0
13,13.95,13.93,0
14,13.65,13.61,0
15,13.65,13.62,0
16,14.00,13.95,0
17,13.85,13.83,0
18,13.70,13.71,0
19,13.95,13.95,0
20,13.70,13.72,0
21,13.80,13.79,0
22,13.70,13.69,0
23,13.60,13.62,0
24,13.65,13.63,0
25,13.65,13.68,0