numero_campione,misure_calibro,misure_micrometro,sottiile/grosso
1,13.65,13.68,0
2,13.65,13.7,0
3,13.7,13.75,0
4,13.65,13.72,0
5,13.65,13.71,0
6,13.85,13.9,1
7,13.75,13.83,1
8,13.8,13.87,1
9,13.9,13.93,1
10,13.8,13.85,1
11,13.85,13.93,1
12,13.9,13.94,1
13,13.85,13.93,1
14,13.9,13.94,1
15,13.75,13.78,1
16,13.8,13.85,1
17,13.8,13.86,1
18,13.8,13.84,1
19,13.9,13.95,1
20,13.85,13.92,1
21,13.75,13.83,1
22,13.85,13.84,1
23,13.7,13.76,1
24,13.75,13.79,1
25,13.8,13.84,1
