Numero_campione ,Misure_calibro,Misure_micrometro 
1,13.45,13.62
2,13.7,13.72
3,13.65,13.7
4,13.85,13.88
5,13.7,13.76
6,13.85,13.82
7,13.8,13.76
8,13.8,13.79
9,13.75,13.76
10,13.7,13.7
11,13.6,13.64
12,13.65,13.65
13,13.55,13.55
14,13.55,13.53
15,13.7,13.72
16,13.8,13.86
17,13.65,13.69
18,13.65,13.68
19,13.9,13.93
20,13.65,13.71
21,13.8,13.84
22,13.65,13.68
23,13.6,13.63
24,13.75,13.78
25,13.9,13.95
